Ailys’ IS415 Journey - Hands-on Exercise 2: Choropleth Mapping with R
…
popdata2020

# A tibble: 332 × 7
   PA         SZ                     YOUNG `ECONOMY ACTIVE`  AGED TOTAL DEPEND…¹
   <chr>      <chr>                  <dbl>            <dbl> <dbl> <dbl>    <dbl>
 1 Ang Mo Kio Ang Mo Kio Town Centre  1290             2760   760  4810    0.743
 2 Ang Mo Kio Cheng San               5640            16460  6050 28150    0.710
 3 Ang Mo Kio Chong Boon              5100            15000  6470 26570    0.771
 4 Ang Mo Kio Kebun Bahru             4620            13010  5120 22750    0.749
 5 Ang Mo Kio Sembawang Hills         1880             3630  1310  6820    0.879
 6 Ang Mo Kio Shangri-La              3330             9050  3610 15990    0.767
 7 Ang Mo Kio Tagore                  1940             4480  1530  7950    0.775
 8 Ang Mo Kio Townsville              4190            11950  5100 21240    0.777
 9 Ang Mo Kio Yio Chu Kang               0                0     0     0  NaN    
10 Ang Mo Kio Yio Chu Kang East       1110             2410   750  4270    0.772
# … with 322 more rows, and abbreviated variable name ¹​DEPENDENCY

3.4.2 Joining Aspatial Data with Geospatial Data

Before performing georelational join, PA and SZ fields needs to be converted into uppercase. This is due to the values in PA and SZ fields having both upper- and lowercases. Whereas SUBZONE_N and PLN_AREA_N are in uppercase.

popdata2020 <- popdata2020 %>%
                mutate_at(.vars = vars(PA, SZ),
                          .funs = funs(toupper)) %>%
                filter(`ECONOMY ACTIVE` > 0)
popdata2020

# A tibble: 234 × 7
   PA         SZ                     YOUNG `ECONOMY ACTIVE`  AGED TOTAL DEPEND…¹
   <chr>      <chr>                  <dbl>            <dbl> <dbl> <dbl>    <dbl>
 1 ANG MO KIO ANG MO KIO TOWN CENTRE  1290             2760   760  4810    0.743
 2 ANG MO KIO CHENG SAN               5640            16460  6050 28150    0.710
 3 ANG MO KIO CHONG BOON              5100            15000  6470 26570    0.771
 4 ANG MO KIO KEBUN BAHRU             4620            13010  5120 22750    0.749
 5 ANG MO KIO SEMBAWANG HILLS         1880             3630  1310  6820    0.879
 6 ANG MO KIO SHANGRI-LA              3330             9050  3610 15990    0.767
 7 ANG MO KIO TAGORE                  1940             4480  1530  7950    0.775
 8 ANG MO KIO TOWNSVILLE              4190            11950  5100 21240    0.777
 9 ANG MO KIO YIO CHU KANG EAST       1110             2410   750  4270    0.772
10 ANG MO KIO YIO CHU KANG WEST       5690            13750  4680 24120    0.754
# … with 224 more rows, and abbreviated variable name ¹​DEPENDENCY
…
