Ailys’ IS415 Journey - Take-home Exercise 2
…
sep2021 <- read_excel("data/aspatial/Data Vaksinasi Berbasis Kelurahan (30 September 2021).xlsx", sheet = "Data Kelurahan")
sep2021["Date"] <- as.Date("2021-09-30", format = "%Y-%m-%d")
sep2021["Date"]

# A tibble: 268 × 1
   Date      
   <date>    
 1 2021-09-30
 2 2021-09-30
 3 2021-09-30
 4 2021-09-30
 5 2021-09-30
 6 2021-09-30
 7 2021-09-30
 8 2021-09-30
 9 2021-09-30
10 2021-09-30
# … with 258 more rows
…
