Ailys’ IS415 Journey - In-class Exercise 4: 2nd Order Spatial Point Patterns Analysis Methods
…
3 Data Handling

3.1 WPdx+ Dataset

wp_osun$Geometry = st_as_sfc(wp_osun$`New Georeferenced Column`)
wp_osun

# A tibble: 5,557 × 71
   row_id `#source`      #lat_…¹ #lon_…² #repo…³ #stat…⁴ #wate…⁵ #wate…⁶ #wate…⁷
    <dbl> <chr>            <dbl>   <dbl> <chr>   <chr>   <chr>   <chr>   <chr>  
 1 429123 GRID3             8.02    5.06 08/29/… Unknown <NA>    <NA>    Tapsta…
 2  70566 Federal Minis…    7.32    4.79 05/11/… No      Protec… Well    Mechan…
 3  70578 Federal Minis…    7.76    4.56 05/11/… No      Boreho… Well    Mechan…
 4  66401 Federal Minis…    8.03    4.64 04/30/… No      Boreho… Well    Mechan…
 5 422190 GRID3             7.87    4.88 08/29/… Unknown <NA>    <NA>    Tapsta…
 6 422064 GRID3             7.7     4.89 08/29/… Unknown <NA>    <NA>    Tapsta…
 7  65607 Federal Minis…    7.89    4.71 05/12/… No      Boreho… Well    Mechan…
 8  68989 Federal Minis…    7.51    4.27 05/07/… No      Boreho… Well    <NA>   
 9  67708 Federal Minis…    7.48    4.35 04/29/… Yes     Boreho… Well    Mechan…
10  66419 Federal Minis…    7.63    4.50 05/08/… Yes     Boreho… Well    Hand P…
# … with 5,547 more rows, 62 more variables: `#water_tech_category` <chr>,
#   `#facility_type` <chr>, `#clean_country_name` <chr>, `#clean_adm1` <chr>,
#   `#clean_adm2` <chr>, `#clean_adm3` <chr>, `#clean_adm4` <chr>,
#   `#install_year` <dbl>, `#installer` <chr>, `#rehab_year` <lgl>,
#   `#rehabilitator` <lgl>, `#management_clean` <chr>, `#status_clean` <chr>,
#   `#pay` <chr>, `#fecal_coliform_presence` <chr>,
#   `#fecal_coliform_value` <dbl>, `#subjective_quality` <chr>, …
…
